{
  "author_name": "yeKcim",
  "author_url": "https://openclipart.org/artist/yeKcim",
  "licence": "CC0",
  "source_name": "Openclipart",
  "source_uri": "https://openclipart.org/detail/12028/chests-by-yekcim-12028"
}
