{
  "author_name": "Anonymous",
  "author_url": "https://openclipart.org/artist/Anonymous",
  "licence": "CC0",
  "source_name": "Openclipart",
  "source_uri": "https://openclipart.org/detail/33523/padlock-turquoise"
}
