{
  "author_name": "Benjamin D. Esham",
  "author_uri": "https://commons.wikimedia.org/wiki/User:Bdesham",
  "licence": "PD",
  "source_name": "Wikimedia Commons",
  "source_uri": "https://commons.wikimedia.org/wiki/File:ROT13_table_with_example.svg"
}
