{
  "author_name": "pogoneo",
  "author_url": "https://openclipart.org/artist/pogoneo",
  "licence": "PD",
  "source_name": "Openclipart",
  "source_uri": "https://openclipart.org/detail/173860/fingerprint-modified"
}
